Untitled
…
airport_locations <- airports %>%
  select(faa, lat, lon)

flights %>%
  select(year:day, hour, origin, dest) %>%
  left_join(
    airport_locations,
    by = c("origin" = "faa")
  ) %>%
  left_join(
    airport_locations,
    by = c("dest" = "faa")
  )

## # A tibble: 336,776 x 10
##     year month   day  hour origin dest  lat.x lon.x lat.y lon.y
##    <int> <int> <int> <dbl> <chr>  <chr> <dbl> <dbl> <dbl> <dbl>
##  1  2013     1     1     5 EWR    IAH    40.7 -74.2  30.0 -95.3
##  2  2013     1     1     5 LGA    IAH    40.8 -73.9  30.0 -95.3
##  3  2013     1     1     5 JFK    MIA    40.6 -73.8  25.8 -80.3
##  4  2013     1     1     5 JFK    BQN    40.6 -73.8  NA    NA  
##  5  2013     1     1     6 LGA    ATL    40.8 -73.9  33.6 -84.4
##  6  2013     1     1     5 EWR    ORD    40.7 -74.2  42.0 -87.9
##  7  2013     1     1     6 EWR    FLL    40.7 -74.2  26.1 -80.2
##  8  2013     1     1     6 LGA    IAD    40.8 -73.9  38.9 -77.5
##  9  2013     1     1     6 JFK    MCO    40.6 -73.8  28.4 -81.3
## 10  2013     1     1     6 LGA    ORD    40.8 -73.9  42.0 -87.9
## # ... with 336,766 more rows
…
flights %>%
  select(year:day, hour, origin, dest) %>%
  left_join(
    airport_locations,
    by = c("origin" = "faa")
  ) %>%
  left_join(
    airport_locations,
    by = c("dest" = "faa"),
    suffix = c("_origin", "_dest")
    # existing lat and lon variables in tibble gain the _origin suffix
    # new lat and lon variables are given _dest suffix
  )

## # A tibble: 336,776 x 10
##     year month   day  hour origin dest  lat_origin lon_origin lat_dest lon_dest
##    <int> <int> <int> <dbl> <chr>  <chr>      <dbl>      <dbl>    <dbl>    <dbl>
##  1  2013     1     1     5 EWR    IAH         40.7      -74.2     30.0    -95.3
##  2  2013     1     1     5 LGA    IAH         40.8      -73.9     30.0    -95.3
##  3  2013     1     1     5 JFK    MIA         40.6      -73.8     25.8    -80.3
##  4  2013     1     1     5 JFK    BQN         40.6      -73.8     NA       NA  
##  5  2013     1     1     6 LGA    ATL         40.8      -73.9     33.6    -84.4
##  6  2013     1     1     5 EWR    ORD         40.7      -74.2     42.0    -87.9
##  7  2013     1     1     6 EWR    FLL         40.7      -74.2     26.1    -80.2
##  8  2013     1     1     6 LGA    IAD         40.8      -73.9     38.9    -77.5
##  9  2013     1     1     6 JFK    MCO         40.6      -73.8     28.4    -81.3
## 10  2013     1     1     6 LGA    ORD         40.8      -73.9     42.0    -87.9
## # ... with 336,766 more rows
…
9.5

1. Airlines (AA)  Envoy Airlines (MQ)

planes_gte100 <- flights %>%
  filter(!is.na(tailnum)) %>%
  group_by(tailnum) %>%
  count() %>%
  filter(n >= 100)
flights %>%
  semi_join(planes_gte100, by = "tailnum")

## # A tibble: 228,390 x 19
##     year month   day dep_time sched_dep_time dep_delay arr_time sched_arr_time
##    <int> <int> <int>    <int>          <int>     <dbl>    <int>          <int>
##  1  2013     1     1      517            515         2      830            819
##  2  2013     1     1      533            529         4      850            830
##  3  2013     1     1      544            545        -1     1004           1022
##  4  2013     1     1      554            558        -4      740            728
##  5  2013     1     1      555            600        -5      913            854
##  6  2013     1     1      557            600        -3      709            723
##  7  2013     1     1      557            600        -3      838            846
##  8  2013     1     1      558            600        -2      849            851
##  9  2013     1     1      558            600        -2      853            856
## 10  2013     1     1      558            600        -2      923            937
## # ... with 228,380 more rows, and 11 more variables: arr_delay <dbl>,
## #   carrier <chr>, flight <int>, tailnum <chr>, origin <chr>, dest <chr>,
## #   air_time <dbl>, distance <dbl>, hour <dbl>, minute <dbl>, time_hour <dttm>

flights %>%
  filter(!is.na(tailnum)) %>%
  group_by(tailnum) %>%
  mutate(n = n()) %>%
  filter(n >= 100)

## # A tibble: 228,390 x 20
## # Groups:   tailnum [1,217]
##     year month   day dep_time sched_dep_time dep_delay arr_time sched_arr_time
##    <int> <int> <int>    <int>          <int>     <dbl>    <int>          <int>
##  1  2013     1     1      517            515         2      830            819
##  2  2013     1     1      533            529         4      850            830
##  3  2013     1     1      544            545        -1     1004           1022
##  4  2013     1     1      554            558        -4      740            728
##  5  2013     1     1      555            600        -5      913            854
##  6  2013     1     1      557            600        -3      709            723
##  7  2013     1     1      557            600        -3      838            846
##  8  2013     1     1      558            600        -2      849            851
##  9  2013     1     1      558            600        -2      853            856
## 10  2013     1     1      558            600        -2      923            937
## # ... with 228,380 more rows, and 12 more variables: arr_delay <dbl>,
## #   carrier <chr>, flight <int>, tailnum <chr>, origin <chr>, dest <chr>,
## #   air_time <dbl>, distance <dbl>, hour <dbl>, minute <dbl>, time_hour <dttm>,
## #   n <int>

library(fueleconomy)

## Warning: 'fueleconomy'R4.1.3 

fueleconomy::vehicles %>%
  semi_join(fueleconomy::common, by = c("make", "model"))

## # A tibble: 14,531 x 12
##       id make  model   year class   trans  drive     cyl displ fuel    hwy   cty
##    <dbl> <chr> <chr>  <dbl> <chr>   <chr>  <chr>   <dbl> <dbl> <chr> <dbl> <dbl>
##  1  1833 Acura Integ~  1986 Subcom~ Autom~ Front-~     4   1.6 Regu~    28    22
##  2  1834 Acura Integ~  1986 Subcom~ Manua~ Front-~     4   1.6 Regu~    28    23
##  3  3037 Acura Integ~  1987 Subcom~ Autom~ Front-~     4   1.6 Regu~    28    22
##  4  3038 Acura Integ~  1987 Subcom~ Manua~ Front-~     4   1.6 Regu~    28    23
##  5  4183 Acura Integ~  1988 Subcom~ Autom~ Front-~     4   1.6 Regu~    27    22
##  6  4184 Acura Integ~  1988 Subcom~ Manua~ Front-~     4   1.6 Regu~    28    23
##  7  5303 Acura Integ~  1989 Subcom~ Autom~ Front-~     4   1.6 Regu~    27    22
##  8  5304 Acura Integ~  1989 Subcom~ Manua~ Front-~     4   1.6 Regu~    28    23
##  9  6442 Acura Integ~  1990 Subcom~ Autom~ Front-~     4   1.8 Regu~    24    20
## 10  6443 Acura Integ~  1990 Subcom~ Manua~ Front-~     4   1.8 Regu~    26    21
## # ... with 14,521 more rows

fueleconomy::vehicles %>%
  distinct(model, make) %>%
  group_by(model) %>%
  filter(n() > 1) %>%
  arrange(model)

## # A tibble: 126 x 2
## # Groups:   model [60]
##    make                   model              
##    <chr>                  <chr>              
##  1 Audi                   200                
##  2 Chrysler               200                
##  3 Mcevoy Motors          240 DL/240 GL Wagon
##  4 Volvo                  240 DL/240 GL Wagon
##  5 Lambda Control Systems 300E               
##  6 Mercedes-Benz          300E               
##  7 J.K. Motors            300SL              
##  8 Mercedes-Benz          300SL              
##  9 Mercedes-Benz          500SE              
## 10 Texas Coach Company    500SE              
## # ... with 116 more rows
…
## [1] 17

carrier_transfer_tbl <- planes_carriers %>%
  # keep only planes which have flown for more than one airline
  group_by(tailnum) %>%
  filter(n() > 1) %>%
  # join with airlines to get airline names
  left_join(airlines, by = "carrier") %>%
  arrange(tailnum, carrier)
carrier_transfer_tbl

## # A tibble: 34 x 3
## # Groups:   tailnum [17]
##    carrier tailnum name                    
##    <chr>   <chr>   <chr>                   
##  1 9E      N146PQ  Endeavor Air Inc.       
##  2 EV      N146PQ  ExpressJet Airlines Inc.
##  3 9E      N153PQ  Endeavor Air Inc.       
##  4 EV      N153PQ  ExpressJet Airlines Inc.
##  5 9E      N176PQ  Endeavor Air Inc.       
##  6 EV      N176PQ  ExpressJet Airlines Inc.
##  7 9E      N181PQ  Endeavor Air Inc.       
##  8 EV      N181PQ  ExpressJet Airlines Inc.
##  9 9E      N197PQ  Endeavor Air Inc.       
## 10 EV      N197PQ  ExpressJet Airlines Inc.
## # ... with 24 more rows
